20.18342 122.11965 6.0496087 11.278193 0.051095042 110.79036 1.304022 1.5222312 PRK90
20.205872 121.0223 5.991239 11.250315 4.0298258E-4 109.771576 1.2904154 1.5090828 
20.301268 119.50825 5.8921137 11.303804 0.0035496943 108.200874 1.272405 1.491462 PRK91
mean interneuron dis: 2.597208 +/- 1.57494(60.639732%)
DT distance b/w start and goal: 2.597208
Euclidean distance b/w start and goal 3.6032343
Difference b/w DT distance and Euclidean distance: -27.920092%

20.301268 119.50825 5.8921137 11.303804 0.0035496943 108.200874 1.272405 1.491462 PRK91
20.354229 116.76267 5.7415485 11.2223425 1.6532511E-5 105.54035 1.2409519 1.4594122 
20.549738 110.955864 5.404506 11.16224 1.1112054E-6 99.793625 1.173823 1.3914773 
20.764973 103.949036 5.0097055 11.003054 4.7693602E-4 92.94552 1.093811 1.3081237 PRK92
mean interneuron dis: 7.6432047 +/- 5.3219953(69.63042%)
DT distance b/w start and goal: 15.286409
Euclidean distance b/w start and goal 14.897281
Difference b/w DT distance and Euclidean distance: 2.6120782%

20.764973 103.949036 5.0097055 11.003054 4.7693602E-4 92.94552 1.093811 1.3081237 PRK92
20.898441 100.388824 4.8063936 10.920539 9.157125E-11 89.468315 1.0539454 1.2650181 
21.0596 96.58029 4.588887 10.800049 2.1309868E-13 85.78023 1.0164075 1.220316 PRK93
mean interneuron dis: 7.181535 +/- 3.6969209(51.47814%)
DT distance b/w start and goal: 7.181535
Euclidean distance b/w start and goal 7.6310225
Difference b/w DT distance and Euclidean distance: -5.8902683%

21.0596 96.58029 4.588887 10.800049 2.1309868E-13 85.78023 1.0164075 1.220316 PRK93
21.252148 91.49613 4.308659 10.439255 3.1739183E-36 81.05689 0.97451615 1.1637955 
21.300486 90.303474 4.2425957 10.30712 3.9379704E-20 79.996315 0.96583694 1.1502568 
21.352892 89.0792 4.175412 9.983452 5.966065E-8 79.09574 0.9576954 1.134235 PRK94
mean interneuron dis: 3.3881652 +/- 2.6856997(79.26708%)
DT distance b/w start and goal: 6.7763305
Euclidean distance b/w start and goal 6.758776
Difference b/w DT distance and Euclidean distance: 0.25972128%

21.352892 89.0792 4.175412 9.983452 5.966065E-8 79.09574 0.9576954 1.134235 PRK94
21.300486 90.303474 4.2425957 10.30712 3.9379704E-20 79.996315 0.96583694 1.1502568 
21.252148 91.49613 4.308659 10.439255 3.1739183E-36 81.05689 0.97451615 1.1637955 
21.390034 87.56209 4.096972 10.014041 7.0E-45 77.548035 0.9465395 1.1211652 
21.589409 81.91519 3.7979267 8.973416 7.0E-45 72.941795 0.9077249 1.0552294 PRK95
mean interneuron dis: 3.4346876 +/- 3.4242144(99.695076%)
DT distance b/w start and goal: 10.304063
Euclidean distance b/w start and goal 6.4760284
Difference b/w DT distance and Euclidean distance: 59.110832%

21.589409 81.91519 3.7979267 8.973416 7.0E-45 72.941795 0.9077249 1.0552294 PRK95
21.778563 75.6701 3.4784207 6.8377757 5.6E-45 68.832306 0.8626499 0.96864545 
22.105087 70.24801 3.1805902 4.51588 4.848E-42 65.7321 0.829829 0.8907564 
22.205837 68.99975 3.1084645 4.070345 1.3441773E-25 64.92938 0.82302743 0.8740285 PRK00
22.128202 69.49504 3.1423786 4.8512044 7.9135106E-8 64.64385 0.8252275 0.8866126 
22.10668 70.96865 3.2156436 6.7191157 0.10697941 64.142586 0.817611 0.91869664 PRK96
mean interneuron dis: 3.0552247 +/- 3.5648317(116.67986%)
DT distance b/w start and goal: 12.220899
Euclidean distance b/w start and goal 9.362583
Difference b/w DT distance and Euclidean distance: 30.529129%

22.10668 70.96865 3.2156436 6.7191157 0.10697941 64.142586 0.817611 0.91869664 PRK96
22.128202 69.49504 3.1423786 4.8512044 7.9135106E-8 64.64385 0.8252275 0.8866126 
22.161179 68.55985 3.0948513 4.283604 1.071187E-9 64.276245 0.81276274 0.86864966 
22.053696 67.7115 3.0708888 4.15974 6.4548616E-11 63.551746 0.79816484 0.85466444 PRK02
21.887442 66.887665 3.0561936 4.4343886 2.7E-44 62.453278 0.7851438 0.84533614 
21.534233 64.73735 3.0059907 5.3388214 6.6703105E-19 59.398518 0.75073206 0.8236532 
21.522804 64.17865 2.981584 5.674768 8.737687E-7 58.503872 0.7404709 0.81872946 
21.646538 66.001076 3.0560627 6.2137856 0.017299294 59.76998 0.7594786 0.84402156 PRK97
mean interneuron dis: 1.667688 +/- 2.2406867(134.35886%)
DT distance b/w start and goal: 10.006128
Euclidean distance b/w start and goal 4.279834
Difference b/w DT distance and Euclidean distance: 133.79712%

21.646538 66.001076 3.0560627 6.2137856 0.017299294 59.76998 0.7594786 0.84402156 PRK97
21.522804 64.17865 2.981584 5.674768 8.737687E-7 58.503872 0.7404709 0.81872946 
21.481544 63.353268 2.949048 5.235042 6.624806E-12 58.118225 0.73504204 0.8063278 
21.464798 61.830082 2.8805044 5.304882 0.0026379963 56.52258 0.71642864 0.7890592 
21.482775 62.31844 2.8997657 6.8862476 1.2227575 54.209427 0.713595 0.8146502 PRK98
mean interneuron dis: 2.2065558 +/- 1.918669(86.95311%)
DT distance b/w start and goal: 6.6196675
Euclidean distance b/w start and goal 5.865417
Difference b/w DT distance and Euclidean distance: 12.859285%

21.482775 62.31844 2.8997657 6.8862476 1.2227575 54.209427 0.713595 0.8146502 PRK98
21.464798 61.830082 2.8805044 5.304882 0.0026379963 56.52258 0.71642864 0.7890592 
21.481544 63.353268 2.949048 5.235042 6.624806E-12 58.118225 0.73504204 0.8063278 
21.631477 64.362785 2.9749525 4.8205194 3.5334313E-7 59.54224 0.7507566 0.81617314 PRK99
mean interneuron dis: 3.0693173 +/- 1.4705272(47.91056%)
DT distance b/w start and goal: 6.1386347
Euclidean distance b/w start and goal 6.7101636
Difference b/w DT distance and Euclidean distance: -8.517361%

21.631477 64.362785 2.9749525 4.8205194 3.5334313E-7 59.54224 0.7507566 0.81617314 PRK99
21.887442 66.887665 3.0561936 4.4343886 2.7E-44 62.453278 0.7851438 0.84533614 
22.053696 67.7115 3.0708888 4.15974 6.4548616E-11 63.551746 0.79816484 0.85466444 PRK02
22.161179 68.55985 3.0948513 4.283604 1.071187E-9 64.276245 0.81276274 0.86864966 
22.205837 68.99975 3.1084645 4.070345 1.3441773E-25 64.92938 0.82302743 0.8740285 PRK00
mean interneuron dis: 1.83116 +/- 1.706845(93.21114%)
DT distance b/w start and goal: 5.4934797
Euclidean distance b/w start and goal 4.326596
Difference b/w DT distance and Euclidean distance: 26.970028%

22.205837 68.99975 3.1084645 4.070345 1.3441773E-25 64.92938 0.82302743 0.8740285 PRK00
22.174759 70.13455 3.1649373 4.198608 3.302733E-27 65.93594 0.8351964 0.8885651 
22.233574 69.91782 3.1460998 3.9272826 0.0056962264 65.98484 0.83700806 0.8849593 PRK01
mean interneuron dis: 1.2928746 +/- 0.27642703(21.380808%)
DT distance b/w start and goal: 1.2928746
Euclidean distance b/w start and goal 2.1544776
Difference b/w DT distance and Euclidean distance: -39.991272%

22.233574 69.91782 3.1460998 3.9272826 0.0056962264 65.98484 0.83700806 0.8849593 PRK01
22.174759 70.13455 3.1649373 4.198608 3.302733E-27 65.93594 0.8351964 0.8885651 
22.205837 68.99975 3.1084645 4.070345 1.3441773E-25 64.92938 0.82302743 0.8740285 PRK00
22.161179 68.55985 3.0948513 4.283604 1.071187E-9 64.276245 0.81276274 0.86864966 
22.053696 67.7115 3.0708888 4.15974 6.4548616E-11 63.551746 0.79816484 0.85466444 PRK02
mean interneuron dis: 0.905286 +/- 0.6747862(74.53846%)
DT distance b/w start and goal: 2.715858
Euclidean distance b/w start and goal 3.5280495
Difference b/w DT distance and Euclidean distance: -23.020977%

22.053696 67.7115 3.0708888 4.15974 6.4548616E-11 63.551746 0.79816484 0.85466444 PRK02
22.164038 68.39468 3.0867913 4.0456476 4.892647E-34 64.34899 0.8109682 0.8641842 PRK03
mean interneuron dis: Infinity +/- 0.0(0.0%)

22.164038 68.39468 3.0867913 4.0456476 4.892647E-34 64.34899 0.8109682 0.8641842 PRK03
22.205837 68.99975 3.1084645 4.070345 1.3441773E-25 64.92938 0.82302743 0.8740285 PRK00
22.176039 69.67034 3.1431892 4.262453 1.9661154E-6 65.40788 0.83194 0.88426745 PRK04
mean interneuron dis: 1.098499 +/- 0.5169702(47.061512%)
DT distance b/w start and goal: 1.098499
Euclidean distance b/w start and goal 0.8390707
Difference b/w DT distance and Euclidean distance: 30.918526%

Mean difference b/w DT distance and Euclidean distance (1): 13.694053%
Mean difference b/w DT distance and Euclidean distance (2): 28.74262%
Mean standard deviation of interneuron distances 70.20034%
