85.77228 302.60886 59.36836 233.11343 54.344917 15.167262 7.7960024 5.1124344 MEX90
86.116165 304.80933 59.80466 234.80478 54.994633 15.026403 7.8757443 5.1547 
86.740486 307.46872 60.07324 236.71774 55.724594 15.0423355 7.9626946 5.212125 MEX91
mean interneuron dis: 3.9388623 +/- 2.067733(52.49569%)
DT distance b/w start and goal: 3.9388623
Euclidean distance b/w start and goal 6.866301
Difference b/w DT distance and Euclidean distance: -42.634876%

86.740486 307.46872 60.07324 236.71774 55.724594 15.0423355 7.9626946 5.212125 MEX91
87.45076 309.8509 60.219048 238.2003 56.272785 15.395248 8.013388 5.266171 
87.83252 311.07327 60.242172 238.86789 56.47104 15.75773 8.015627 5.291175 MEX92
mean interneuron dis: 2.4136524 +/- 0.7858337(32.557865%)
DT distance b/w start and goal: 2.4136524
Euclidean distance b/w start and goal 2.2771926
Difference b/w DT distance and Euclidean distance: 5.9924603%

87.83252 311.07327 60.242172 238.86789 56.47104 15.75773 8.015627 5.291175 MEX92
87.45076 309.8509 60.219048 238.2003 56.272785 15.395248 8.013388 5.266171 
87.58698 309.94028 60.063164 237.8048 56.73415 15.409175 8.022705 5.260406 
88.52942 311.62283 59.64542 237.32541 58.34209 15.948628 8.056673 5.2795825 
90.1914 314.5448 59.110374 236.50354 60.92367 17.18547 8.075003 5.3306494 MEX93
mean interneuron dis: 2.083851 +/- 1.9696536(94.51988%)
DT distance b/w start and goal: 6.2515535
Euclidean distance b/w start and goal 4.342188
Difference b/w DT distance and Euclidean distance: 43.97243%

90.1914 314.5448 59.110374 236.50354 60.92367 17.18547 8.075003 5.3306494 MEX93
90.536674 315.2867 59.046284 236.45648 61.463547 17.472584 8.071655 5.3449078 
90.981384 321.8855 59.44481 242.25035 62.251415 17.553904 8.076731 5.407806 
91.00877 327.75937 59.94137 248.34222 62.319794 17.272646 8.090473 5.4551797 
91.17221 331.17734 60.153244 251.44232 62.68542 17.247442 8.09798 5.4846845 MEX94
mean interneuron dis: 5.2421994 +/- 4.7483788(90.579895%)
DT distance b/w start and goal: 15.726598
Euclidean distance b/w start and goal 16.717848
Difference b/w DT distance and Euclidean distance: -5.9292912%

91.17221 331.17734 60.153244 251.44232 62.68542 17.247442 8.09798 5.4846845 MEX94
91.00877 327.75937 59.94137 248.34222 62.319794 17.272646 8.090473 5.4551797 
91.69824 324.49136 59.3619 243.13799 63.50308 18.097054 8.075702 5.4428034 
91.54487 317.84262 58.843193 236.57079 63.187805 18.302631 8.065038 5.3860273 
92.53461 319.86163 58.585827 234.5582 66.03484 19.61072 8.187406 5.420801 MEX95
mean interneuron dis: 6.297995 +/- 3.2990625(52.38274%)
DT distance b/w start and goal: 18.893986
Euclidean distance b/w start and goal 19.957796
Difference b/w DT distance and Euclidean distance: -5.3303003%

92.53461 319.86163 58.585827 234.5582 66.03484 19.61072 8.187406 5.420801 MEX95
93.56116 323.99768 58.49348 233.78253 69.57985 21.112013 8.389561 5.4736643 
94.15463 328.51553 58.54738 234.29941 72.53921 22.207159 8.608306 5.518013 MEX96
mean interneuron dis: 7.1395817 +/- 3.2057803(44.901516%)
DT distance b/w start and goal: 7.1395817
Euclidean distance b/w start and goal 9.298298
Difference b/w DT distance and Euclidean distance: -23.216253%

94.15463 328.51553 58.54738 234.29941 72.53921 22.207159 8.608306 5.518013 MEX96
94.98362 336.12756 58.866596 237.34528 75.92655 23.39081 8.838505 5.5919347 
96.114395 345.3684 59.489017 242.65698 78.62554 24.5961 8.981402 5.719112 
96.27526 347.49768 59.535706 243.80847 79.402534 24.7814 9.026508 5.733073 MEX97
mean interneuron dis: 6.1200933 +/- 1.3964659(22.817722%)
DT distance b/w start and goal: 12.240187
Euclidean distance b/w start and goal 11.330862
Difference b/w DT distance and Euclidean distance: 8.025206%

96.27526 347.49768 59.535706 243.80847 79.402534 24.7814 9.026508 5.733073 MEX97
96.72036 351.40814 59.8594 246.29382 80.42252 25.181118 9.070338 5.790801 
97.16366 355.72134 60.31386 249.21854 81.50781 25.496138 9.107159 5.861512 
97.66427 363.66156 61.033627 254.50464 83.97762 25.709154 9.203016 5.9612937 
98.17836 369.1995 61.622406 258.0815 85.59815 26.066154 9.270323 6.0507016 
97.944435 369.3539 61.536102 258.1371 85.99414 25.772717 9.2905035 6.027741 MEX98
mean interneuron dis: 4.0706286 +/- 2.426804(59.617428%)
DT distance b/w start and goal: 16.282515
Euclidean distance b/w start and goal 16.27141
Difference b/w DT distance and Euclidean distance: 0.06824732%

97.944435 369.3539 61.536102 258.1371 85.99414 25.772717 9.2905035 6.027741 MEX98
98.65744 373.0572 62.07566 260.47253 86.656166 26.476763 9.31948 6.1253343 
99.293686 373.07568 61.9772 259.84128 86.195724 27.440321 9.344033 6.1546154 
99.795654 371.1308 61.73373 258.05743 85.03385 28.304365 9.330837 6.1613317 
99.45264 367.01767 61.455784 255.73651 83.59418 27.992887 9.246489 6.1128345 
98.68759 361.81094 61.144043 253.01123 82.08926 27.10757 9.142731 6.036091 MEX99
mean interneuron dis: 3.040174 +/- 2.0091949(66.08815%)
DT distance b/w start and goal: 12.160696
Euclidean distance b/w start and goal 7.2250023
Difference b/w DT distance and Euclidean distance: 68.31407%

98.68759 361.81094 61.144043 253.01123 82.08926 27.10757 9.142731 6.036091 MEX99
99.90374 370.01364 61.673904 257.3518 84.41617 28.490728 9.303924 6.1619415 
100.17166 372.25772 61.826454 258.5342 85.15363 28.780453 9.352718 6.1935515 
100.19516 375.58505 62.186146 260.81308 86.443275 28.597841 9.397255 6.2308645 
99.70587 376.0376 62.29991 261.59552 86.992905 27.83576 9.386853 6.2122335 
100.00143 378.99252 62.5208 263.17657 87.60782 28.60687 9.413447 6.2759495 MEX00
mean interneuron dis: 3.0838902 +/- 3.257991(105.64549%)
DT distance b/w start and goal: 12.335561
Euclidean distance b/w start and goal 14.231824
Difference b/w DT distance and Euclidean distance: -13.324106%

100.00143 378.99252 62.5208 263.17657 87.60782 28.60687 9.413447 6.2759495 MEX00
100.415016 378.14047 62.455322 262.4027 87.24262 28.773521 9.433174 6.2723913 
100.596 377.27374 62.259693 261.4762 86.809395 29.184628 9.439602 6.265816 MEX01
mean interneuron dis: 1.9940574 +/- 1.119588(56.14623%)
DT distance b/w start and goal: 1.9940574
Euclidean distance b/w start and goal 5.942032
Difference b/w DT distance and Euclidean distance: -66.44149%

100.596 377.27374 62.259693 261.4762 86.809395 29.184628 9.439602 6.265816 MEX01
100.19516 375.58505 62.186146 260.81308 86.443275 28.597841 9.397255 6.2308645 
99.70587 376.0376 62.29991 261.59552 86.992905 27.83576 9.386853 6.2122335 
98.65744 373.0572 62.07566 260.47253 86.656166 26.476763 9.31948 6.1253343 
97.944435 369.3539 61.536102 258.1371 85.99414 25.772717 9.2905035 6.027741 MEX98
99.01773 371.94302 61.413494 256.1761 89.14198 26.631514 9.567458 6.081948 
101.37995 378.33817 61.696987 255.01501 94.14473 28.35036 9.95293 6.256331 
103.655815 384.38074 61.93652 253.26721 98.90135 30.561981 10.362154 6.4208975 
103.73189 385.5189 61.872887 252.62457 99.82151 31.314226 10.521005 6.4199986 
103.20973 385.4868 61.476185 251.81993 100.25466 31.704653 10.570047 6.389926 MEX02
mean interneuron dis: 2.9791899 +/- 4.9641514(166.62756%)
DT distance b/w start and goal: 23.833519
Euclidean distance b/w start and goal 15.747052
Difference b/w DT distance and Euclidean distance: 51.352264%

103.20973 385.4868 61.476185 251.81993 100.25466 31.704653 10.570047 6.389926 MEX02
103.41966 386.65314 61.912163 251.87999 100.22429 32.834175 10.499399 6.404505 
103.54191 388.19458 62.099728 251.34134 100.79095 34.33169 10.345866 6.434318 
103.52523 390.1196 62.075294 250.42264 101.88842 36.06698 10.161031 6.470303 MEX03
mean interneuron dis: 2.5895052 +/- 1.6336958(63.08911%)
DT distance b/w start and goal: 5.1790104
Euclidean distance b/w start and goal 5.4884
Difference b/w DT distance and Euclidean distance: -5.637157%

103.52523 390.1196 62.075294 250.42264 101.88842 36.06698 10.161031 6.470303 MEX03
103.54191 388.19458 62.099728 251.34134 100.79095 34.33169 10.345866 6.434318 
103.41966 386.65314 61.912163 251.87999 100.22429 32.834175 10.499399 6.404505 
103.73189 385.5189 61.872887 252.62457 99.82151 31.314226 10.521005 6.4199986 
103.84161 384.913 61.926617 253.0765 99.37884 30.725939 10.433143 6.431733 MEX04
mean interneuron dis: 2.1915898 +/- 0.6654372(30.36322%)
DT distance b/w start and goal: 6.5747695
Euclidean distance b/w start and goal 8.201006
Difference b/w DT distance and Euclidean distance: -19.82972%

Mean difference b/w DT distance and Euclidean distance (1): -0.3298934%
Mean difference b/w DT distance and Euclidean distance (2): 25.719133%
Mean standard deviation of interneuron distances 66.98804%
