188.2485 152.07896 0.83608085 95.37532 40.93209 15.771551 5.3562946 2.2430694 IDN90
189.87984 153.55115 0.81985855 97.3093 41.31843 14.923452 5.5417542 2.2687044 
190.80334 155.22939 0.81358904 97.7488 42.40454 15.076033 5.528381 2.2895706 
191.90656 156.9744 0.81777865 99.55632 42.83001 14.588111 5.7110476 2.3177326 IDN91
Mean interneuron dis: 1.7552296 +/- 0.7202497 (41.0345%)
LI distance: 5.265689
Euclidean distance: 6.054244
Difference b/w LI distance and Euclidean distance: -13.024831%

191.90656 156.9744 0.81777865 99.55632 42.83001 14.588111 5.7110476 2.3177326 IDN91
193.21107 161.7313 0.8367233 101.39231 45.318222 15.0207615 5.814383 2.3797143 
194.3431 166.15683 0.8546673 102.952896 47.692265 15.511687 5.89185 2.4367387 
195.40044 171.26434 0.87623227 104.446434 50.343483 16.474459 5.9524436 2.5041513 IDN92
Mean interneuron dis: 3.06752 +/- 0.22892453 (7.462854%)
LI distance: 9.202559
Euclidean distance: 10.178567
Difference b/w LI distance and Euclidean distance: -9.58885%

195.40044 171.26434 0.87623227 104.446434 50.343483 16.474459 5.9524436 2.5041513 IDN92
196.51044 178.16418 0.9062368 106.31227 53.34226 18.509663 6.0466137 2.6037602 
197.50392 185.50652 0.9386876 108.15859 56.221172 21.126698 6.1490736 2.7142906 
198.27252 192.73149 0.97859013 109.88443 59.042442 23.804602 6.2484207 2.8235173 
199.7432 199.19777 0.99709517 111.527275 61.697094 25.973377 6.374157 2.9295218 IDN93
Mean interneuron dis: 4.112768 +/- 0.39462456 (9.595108%)
LI distance: 16.451073
Euclidean distance: 15.602135
Difference b/w LI distance and Euclidean distance: 5.441165%

199.7432 199.19777 0.99709517 111.527275 61.697094 25.973377 6.374157 2.9295218 IDN93
200.65439 201.88899 1.00598 112.144325 62.976017 26.768625 6.458384 2.983593 
201.60808 204.93414 1.0164511 112.21271 63.829994 28.8915 6.5510015 3.0428 
202.33008 207.60913 1.0337121 112.438965 64.74105 30.42917 6.63606 3.096682 IDN94
Mean interneuron dis: 1.9089884 +/- 0.48479664 (25.395473%)
LI distance: 5.726965
Euclidean distance: 6.468523
Difference b/w LI distance and Euclidean distance: -11.464101%

202.33008 207.60913 1.0337121 112.438965 64.74105 30.42917 6.63606 3.096682 IDN94
203.02335 209.48778 1.0313326 113.979744 65.38698 30.121029 6.6910977 3.1207073 
203.02335 209.48778 1.0313326 113.979744 65.38698 30.121029 6.6910977 3.1207073 
204.57332 209.98584 1.0261338 115.09061 68.007645 26.887596 6.8088236 3.1723688 
204.79672 210.07521 1.0254835 115.19429 68.35905 26.521877 6.8259006 3.1801994 
206.17134 213.02293 1.0331479 116.29248 69.90247 26.827982 6.944859 3.2450452 IDN95
206.17134 213.02293 1.0331479 116.29248 69.90247 26.827982 6.944859 3.2450452 IDN95
Mean interneuron dis: 1.4085454 +/- 3.67804 (261.1233%)
LI distance: 8.451272
Euclidean distance: 7.9416647
Difference b/w LI distance and Euclidean distance: 6.416881%

206.17134 213.02293 1.0331479 116.29248 69.90247 26.827982 6.944859 3.2450452 IDN95
206.1581 217.79242 1.0556883 118.21738 69.32804 30.247047 6.9885163 3.2761471 
207.40327 219.16745 1.0772464 120.56056 69.26342 29.34353 7.0741315 3.3281286 
207.56018 225.02588 1.083422 121.00454 70.41996 33.601414 7.1499863 3.37063 
209.31923 231.20639 1.1042447 124.111595 72.37115 34.72369 7.3275094 3.466522 
210.3177 234.57816 1.1152172 126.27397 73.115005 35.189182 7.403798 3.515362 IDN96
Mean interneuron dis: 3.4185994 +/- 1.8718089 (54.753677%)
LI distance: 17.092997
Euclidean distance: 13.792474
Difference b/w LI distance and Euclidean distance: 23.929882%

210.3177 234.57816 1.1152172 126.27397 73.115005 35.189182 7.403798 3.515362 IDN96
210.23175 236.61148 1.1937897 133.71724 67.58642 35.307835 7.3430567 3.540808 
212.15285 238.87032 1.1257461 130.40756 72.885544 35.57717 7.4600925 3.5711381 
214.54784 241.38362 1.1251111 134.81049 71.179 35.394188 7.486344 3.6004093 
215.32774 244.78412 1.1368315 138.40263 72.056526 34.325035 7.4915752 3.6489096 IDN97
Mean interneuron dis: 6.025916 +/- 4.1260347 (68.4715%)
LI distance: 24.103664
Euclidean distance: 13.949724
Difference b/w LI distance and Euclidean distance: 72.789536%

215.32774 244.78412 1.1368315 138.40263 72.056526 34.325035 7.4915752 3.6489096 IDN97
215.49516 242.74466 1.1266009 137.31842 70.742065 34.684216 7.4828467 3.6173425 
215.95486 240.80063 1.1152118 135.74025 69.04286 36.017532 7.502001 3.5869906 
215.90887 239.10185 1.1084236 134.77943 68.2864 36.03601 7.486111 3.5646899 IDN98
Mean interneuron dis: 1.8800998 +/- 1.0405746 (55.346775%)
LI distance: 5.6402993
Euclidean distance: 11.222888
Difference b/w LI distance and Euclidean distance: -49.74289%

215.90887 239.10185 1.1084236 134.77943 68.2864 36.03601 7.486111 3.5646899 IDN98
215.32774 244.78412 1.1368315 138.40263 72.056526 34.325035 7.4915752 3.6489096 IDN97
216.11482 247.79065 1.1463491 138.94363 72.58199 36.264973 7.5766006 3.6924043 
217.79698 254.46373 1.1675683 138.39902 73.59183 42.47289 7.80603 3.7909393 
218.85077 257.29333 1.1751662 142.591 73.470856 41.231472 7.767242 3.8306358 
221.34933 263.81345 1.1916622 144.11548 73.419785 46.278206 7.965381 3.9233193 IDN99
Mean interneuron dis: 4.710958 +/- 3.247434 (68.93362%)
LI distance: 23.55479
Euclidean distance: 13.888444
Difference b/w LI distance and Euclidean distance: 69.59993%

221.34933 263.81345 1.1916622 144.11548 73.419785 46.278206 7.965381 3.9233193 IDN99
222.6865 267.82785 1.2025769 146.8084 72.65345 48.366016 7.9576015 3.9836714 
223.90129 271.73724 1.2135298 149.79054 71.67902 50.267586 7.91191 4.0437627 
224.7319 274.42017 1.2209942 151.7083 71.27617 51.435703 7.8944855 4.085992 IDN00
Mean interneuron dis: 3.1481123 +/- 1.0682803 (33.934%)
LI distance: 9.444337
Euclidean distance: 11.232143
Difference b/w LI distance and Euclidean distance: -15.916878%

224.7319 274.42017 1.2209942 151.7083 71.27617 51.435703 7.8944855 4.085992 IDN00
225.90805 280.99216 1.2435306 153.23317 72.74108 55.01786 7.9406295 4.19306 
227.8843 288.2163 1.264349 156.11057 74.845726 57.260025 8.059114 4.3161964 
227.55322 295.45844 1.3253378 155.61935 76.40944 63.42964 8.071507 4.426387 IDN01
Mean interneuron dis: 4.9204082 +/- 1.7940019 (36.46043%)
LI distance: 14.761225
Euclidean distance: 13.889032
Difference b/w LI distance and Euclidean distance: 6.279719%

227.55322 295.45844 1.3253378 155.61935 76.40944 63.42964 8.071507 4.426387 IDN01
227.55322 295.45844 1.3253378 155.61935 76.40944 63.42964 8.071507 4.426387 IDN01
230.34271 299.65613 1.3178879 159.93852 78.33289 61.384747 8.254221 4.508596 
230.34271 299.65613 1.3178879 159.93852 78.33289 61.384747 8.254221 4.508596 
233.17198 300.9345 1.290551 164.42712 79.741646 56.76578 8.441092 4.5466976 
234.93259 309.42978 1.3223457 168.5248 80.82265 60.082275 8.555998 4.6537623 
234.37471 311.33997 1.3292838 167.02055 79.84073 64.478745 8.498461 4.6600485 
233.04086 312.7925 1.3521928 164.95076 78.646194 69.19561 8.40741 4.6564503 IDN02
Mean interneuron dis: 3.8818457 +/- 6.641674 (171.09578%)
LI distance: 27.17292
Euclidean distance: 9.663989
Difference b/w LI distance and Euclidean distance: 181.17706%

233.04086 312.7925 1.3521928 164.95076 78.646194 69.19561 8.40741 4.6564503 IDN02
234.08105 314.0133 1.3423551 165.07983 78.43828 70.495186 8.47353 4.67625 
235.05777 314.41327 1.3402472 165.13356 78.430824 70.84897 8.466384 4.681201 IDN03
Mean interneuron dis: 0.84114087 +/- 0.6832243 (81.225914%)
LI distance: 1.6822817
Euclidean distance: 3.415252
Difference b/w LI distance and Euclidean distance: -50.74209%

235.05777 314.41327 1.3402472 165.13356 78.430824 70.84897 8.466384 4.681201 IDN03
235.33833 311.25003 1.3228124 168.09908 80.286125 62.864758 8.579748 4.672059 
235.33833 311.25003 1.3228124 168.09908 80.286125 62.864758 8.579748 4.672059 
236.22482 308.80402 1.3075463 170.28038 81.69589 56.82775 8.654008 4.6648006 
237.54846 307.28693 1.2936565 172.113 82.70396 52.469982 8.769697 4.6702332 IDN04
Mean interneuron dis: 5.031299 +/- 6.4278026 (127.756325%)
LI distance: 20.125196
Euclidean distance: 22.899176
Difference b/w LI distance and Euclidean distance: -12.113881%

Mean difference b/w LI distance and Euclidean distance (1): 14.502905%
Mean difference b/w LI distance and Euclidean distance (2): 37.730553%
Mean standard deviation of interneuron distances 74.470665%
