8 15
123.537399 1014.8521 8.214938212 667.3109272 102.1141088 245.4270636 3.385493585 18.3564035 JPN90
123.946268 1028.651858 8.299175717 668.6326198 109.114299 250.9049387 3.558295407 18.96522107 JPN91
124.329269 1039.843282 8.363624195 688.6750428 111.7317169 239.4365227 3.478206718 19.20189751 JPN92
124.668019 1043.119586 8.367178641 689.9671634 112.3113477 240.8410747 3.838972046 19.30338971 JPN93
125.01405 1088.003212 8.703047474 709.1162261 120.3653306 258.5216554 3.733037481 20.20465277 JPN94
125.341354 1075.844502 8.583316418 686.1457289 121.8766962 267.8220765 4.124187218 20.71058081 JPN95
125.645311 1103.430685 8.782107956 702.1619798 131.979923 269.2887826 4.22892583 21.26112232 JPN96
125.956499 1141.017423 9.058821354 704.0613536 134.7080944 302.2479748 4.475119848 21.9363801 JPN97
126.246096 1103.150786 8.738098216 676.0636324 139.8356145 287.2515394 4.584763463 21.52247201 JPN98
126.494403 1149.383959 9.086441234 686.6701543 150.9151556 311.7986495 4.361773142 22.01645432 JPN99
126.699784 1190.064396 9.392789458 675.5730826 156.430111 358.0612019 4.405621949 22.44818889 JPN00
126.891645 1169.509374 9.216598728 656.997579 156.3033553 356.2084396 4.377371556 22.1771523 JPN01
127.065841 1186.004149 9.33377641 644.356531 161.8167466 379.8308716 4.061690462 21.99018339 JPN02
127.214499 1244.293801 9.78106907 683.4624716 168.2855125 392.5458174 3.666057944 22.20413245 JPN03
127.333002 1262.098512 9.911794208 665.1394727 163.0816109 433.8774282 4.033606158 22.62406232 JPN04