8 15
42.869 237.8739957 5.548858048 143.609046 6.320870701 87.94407894 0.862581396 3.809791883 KOR90
43.31803 269.4658927 6.220640522 170.5533076 7.318575054 91.59401007 0.844626829 4.352684 KOR91
43.80545 289.9441459 6.618905772 194.298597 9.594117463 86.05143143 0.787225246 4.893047726 KOR92
44.295873 336.2350957 7.590664162 220.9263662 11.98483063 103.3238989 0.768948092 5.475356241 KOR93
44.780886 353.9533263 7.904116197 229.1176904 15.95337281 108.8822631 0.715967446 5.920607053 KOR94
45.264146 393.3468439 8.690031264 256.0024028 19.29036653 118.0540746 0.771787789 6.515876416 KOR95
45.730245 404.9705754 8.855639751 264.0828457 25.48496073 115.402769 0.818890534 6.867485659 KOR96
46.173816 435.6861073 9.435782983 275.5626934 30.99858872 129.1248251 0.846008125 7.470458346 KOR97
46.589612 377.6155487 8.105144742 213.8815303 28.99793952 134.7360789 0.978776309 6.901112137 KOR98
46.972817 426.1441788 9.072144403 251.3468694 35.31072836 139.4865811 1.105641054 7.549444944 KOR99
47.351083 442.5119255 9.34533906 252.1450078 39.49561086 150.8713068 1.159439296 7.922006907 KOR00
47.697738 438.1957231 9.186928804 242.2817705 42.57600223 153.3379504 1.182771381 8.018116923 KOR01
47.96915 465.4973737 9.704098857 243.8758164 48.22628545 173.3952719 1.232050026 8.423369152 KOR02
48.202264 474.9764591 9.85382054 247.7558733 50.25196885 176.9686169 1.357370271 8.691231236 KOR03
48.426325 496.763775 10.25813491 244.7180829 58.08767107 193.958021 1.355035067 8.985057642 KOR04