4 15
207.7480363 138.7340174 69.01401888 0 SaudiArabia90
226.129894 139.8367119 86.27415604 0.019026027 SaudiArabia91
233.0420579 145.3759698 87.66608809 0 SaudiArabia92
232.1274617 144.0295513 88.09791049 0 SaudiArabia93
238.2956385 146.1385272 92.15711128 0 SaudiArabia94
233.4375057 136.0652131 97.37229257 0 SaudiArabia95
248.3659323 145.0071544 103.3587778 0 SaudiArabia96
253.1015355 162.7977859 90.30374966 0 SaudiArabia97
256.2068959 162.2132423 93.99365355 0 SaudiArabia98
261.9734174 171.228924 90.74449339 0 SaudiArabia99
288.21072 189.9463553 98.26436467 0 SaudiArabia00
299.4269791 194.2080112 105.2189678 0 SaudiArabia01
309.1852139 198.0908733 111.0943407 0 SaudiArabia02
344.8816537 227.4290114 117.4526423 0 SaudiArabia03
365.0691233 236.4527842 128.6046567 0.011682407 SaudiArabia04