4 15
262.7667114 95.38250096 34.85799059 132.5262199 Australia90
263.4723104 93.36012586 32.68014688 137.4320376 Australia91
276.237352 98.01707624 33.73826649 144.4820093 Australia92
281.0651078 101.2273867 35.09186584 144.7458552 Australia93
279.0009996 104.1042977 36.58140673 138.3152953 Australia94
284.8350815 105.002785 39.26470392 140.5675926 Australia95
297.5430653 105.4695138 39.62123855 152.4523129 Australia96
326.86827 107.0070946 39.86425812 179.9969173 Australia97
333.2648046 111.154269 41.70808728 180.4024483 Australia98
350.8170474 114.1509535 43.45502811 193.2110658 Australia99
353.2025758 113.9574418 45.42068307 193.8244509 Australia00
366.5098513 115.1666893 47.72197798 203.621184 Australia01
374.3533436 116.6764917 50.3877261 207.2891258 Australia02
371.702066 116.4360603 52.02929647 203.2367092 Australia03
386.1775027 117.073242 52.35787241 216.7463883 Australia04