4 13
2009.959427 630.7084648 896.3980223 482.8529403 Russia92
1864.489935 541.061831 876.4928933 446.9352108 Russia93
1689.478568 453.0166795 823.0768163 413.3850727 Russia94
1590.822764 423.766878 772.758506 394.2973799 Russia95
1569.917555 376.0468153 772.5704752 421.300264 Russia96
1457.292677 367.5664449 727.6292047 362.097027 Russia97
1463.140765 361.5292579 760.7206486 340.8908586 Russia98
1536.425407 360.8834604 758.9991284 416.5428184 Russia99
1556.266024 367.2880393 765.3113691 423.6666156 Russia00
1545.545849 357.9881091 780.6137709 406.9439691 Russia01
1547.302104 351.3031774 789.0300919 406.9688351 Russia02
1602.351005 364.3690069 828.2424964 409.739502 Russia03
1684.836903 376.3436827 867.837461 440.6557592 Russia04