-4.8540425 2.4382262 -0.9864996 0.14911853 -0.1308223
-4.740582 2.4425116 -0.96307653 0.17111205 -0.24143341
-4.62798 2.423582 -0.9342041 0.20481457 -0.34692428
-4.52397 2.4141123 -0.88971394 0.21161465 -0.43775216
-4.3594027 2.4298198 -0.8006616 0.1763404 -0.58246505
-4.1545925 2.472503 -0.6577116 0.12148143 -0.7436787
-4.033893 2.510355 -0.5628245 0.09418588 -0.8203332
-3.9421422 2.51496 -0.49220222 0.11315788 -0.8663762
-3.788516 2.5021582 -0.37478048 0.16975541 -0.9204833
-3.598501 2.5074 -0.22245164 0.19384986 -0.9595672
-3.338547 2.5240314 0.0035669468 0.17343852 -0.98452884
-3.2043066 2.5265112 0.12616731 0.1646252 -0.9850371
-3.025444 2.5168219 0.29696015 0.16394328 -0.93723965
-2.7788951 2.570079 0.529227 0.129376 -0.8415039
-2.6825547 2.6331813 0.6024765 0.08018237 -0.7949916
-2.6181276 2.6455262 0.65023416 0.08298976 -0.75679773
-2.5727208 2.6216981 0.6849833 0.110751785 -0.7251929
-2.441689 2.577376 0.77696013 0.11627243 -0.6217779
-2.3512788 2.562663 0.8311337 0.10069375 -0.55245143
-2.1836805 2.6087399 0.8936994 0.06552687 -0.4119669
-1.94679 2.6743567 0.973093 0.035340916 -0.21664362
-1.9088615 2.68112 0.98088294 0.033094462 -0.1834227
-1.706638 2.6944714 0.9814665 0.02595104 0.0070528905
-1.5173596 2.6842942 0.97745854 0.039125618 0.18618312
-1.3833526 2.6758666 0.942027 0.0455303 0.29865146
-1.1391479 2.6313455 0.8594639 0.07842585 0.49909103
-1.0446235 2.6168973 0.81573045 0.0724014 0.5732464
-0.95571154 2.5990806 0.7651779 0.068056256 0.63826084
-0.78521764 2.6122265 0.64950496 0.049685664 0.7440717
-0.6007078 2.6194186 0.5190024 0.04557385 0.8504042
-0.48438257 2.6038506 0.41934115 0.06326816 0.89420384
-0.24044868 2.5805058 0.2055932 0.07252508 0.9738133
-0.18782161 2.5834749 0.15398219 0.06332237 0.9854295
-0.10035257 2.5535018 0.06273888 0.0948102 0.9956116
0.08988972 2.5163574 -0.12584366 0.16512872 1.0282208
0.41226292 2.4803715 -0.42125937 0.2321305 1.1159489
0.58381253 2.4912875 -0.56448066 0.20413008 1.1787108
0.63885695 2.5364509 -0.60637414 0.13364159 1.2067125
0.7054837 2.5742886 -0.67935413 0.072813265 1.2739758
0.7358417 2.5697205 -0.72018856 0.07657383 1.3111523
0.9165939 2.5580392 -0.81034344 0.12333205 1.4534742
1.3031744 2.5225208 -0.9504253 0.25105914 1.7334543
1.455762 2.5551243 -0.9855141 0.21959987 1.8563148
1.5785717 2.5877624 -0.99560726 0.17643303 1.962529
1.6930757 2.6431067 -0.9906921 0.13545044 2.076549
1.8062651 2.7007418 -0.97754806 0.10167024 2.1887498
1.9078672 2.7378368 -0.9557985 0.08148999 2.2814925
2.064257 2.7490468 -0.91155624 0.073376834 2.4031453
2.1286366 2.7471993 -0.89067644 0.07863896 2.4521053
2.255028 2.7464828 -0.8181334 0.06232147 2.5552316
2.4533908 2.747439 -0.69347394 0.031773698 2.7128193
2.5903332 2.73633 -0.5816418 0.0352053 2.7923539
2.8801544 2.688198 -0.32404494 0.09465657 2.9345043
2.9683309 2.6762152 -0.23514101 0.11970977 2.9670691
3.0735786 2.6809502 -0.1235089 0.12194387 2.9876769
3.1992993 2.7152462 0.017900512 0.08768305 2.9941318
3.3258002 2.749966 0.15930957 0.0764412 2.9801908
3.3861613 2.7687182 0.22715224 0.074888505 2.969092
3.6630816 2.7659163 0.43203956 0.13208629 2.8759353
4.0315566 2.786835 0.6710209 0.15659532 2.7331169
4.1173368 2.8115835 0.7223112 0.12598857 2.6866622
4.272956 2.8200686 0.8034413 0.105664134 2.58696
4.4310246 2.7806973 0.8805904 0.14853576 2.4536808
4.5837607 2.76659 0.9403119 0.16730852 2.3140695
4.6536975 2.7805014 0.96455294 0.15025702 2.246175